{
    "AED": {
        "country": {
            "alpha3Code": "ARE",
            "region": "Asia",
            "subregion": "Western Asia",
            "numericCode": "784",
            "flag": "https://restcountries.eu/data/are.svg",
            "name": "United Arab Emirates"
        },
        "symbol": "AED",
        "name": "United Arab Emirates Dirham",
        "symbol_native": "د.إ.‏",
        "decimal_digits": 2,
        "rounding": 0,
        "code": "AED",
        "name_plural": "UAE dirhams"
    },
    "AFN": {
        "country": {
            "alpha3Code": "AFG",
            "region": "Asia",
            "subregion": "Southern Asia",
            "numericCode": "004",
            "flag": "https://restcountries.eu/data/afg.svg",
            "name": "Afghanistan"
        },
        "symbol": "Af",
        "name": "Afghan Afghani",
        "symbol_native": "؋",
        "decimal_digits": 0,
        "rounding": 0,
        "code": "AFN",
        "name_plural": "Afghan Afghanis"
    },
    "ALL": {
        "country": {
            "alpha3Code": "ALB",
            "region": "Europe",
            "subregion": "Southern Europe",
            "numericCode": "008",
            "flag": "https://restcountries.eu/data/alb.svg",
            "name": "Albania"
        },
        "symbol": "ALL",
        "name": "Albanian Lek",
        "symbol_native": "Lek",
        "decimal_digits": 0,
        "rounding": 0,
        "code": "ALL",
        "name_plural": "Albanian lekë"
    },
    "AMD": {
        "country": {
            "alpha3Code": "ARM",
            "region": "Asia",
            "subregion": "Western Asia",
            "numericCode": "051",
            "flag": "https://restcountries.eu/data/arm.svg",
            "name": "Armenia"
        },
        "symbol": "AMD",
        "name": "Armenian Dram",
        "symbol_native": "դր.",
        "decimal_digits": 0,
        "rounding": 0,
        "code": "AMD",
        "name_plural": "Armenian drams"
    },
    "ANG": {
        "country": {
            "alpha3Code": "SXM",
            "region": "Americas",
            "subregion": "Caribbean",
            "numericCode": "534",
            "flag": "https://restcountries.eu/data/sxm.svg",
            "name": "Sint Maarten (Dutch part)"
        },
        "symbol": "ƒ",
        "name": "Netherlands Antillean guilder",
        "symbol_native": "ƒ",
        "decimal_digits": 0,
        "rounding": 0,
        "code": "ANG",
        "name_plural": "Netherlands Antillean guilder"
    },
    "AOA": {
        "country": {
            "alpha3Code": "AGO",
            "region": "Africa",
            "subregion": "Middle Africa",
            "numericCode": "024",
            "flag": "https://restcountries.eu/data/ago.svg",
            "name": "Angola"
        },
        "symbol": "Kz",
        "name": "Angolan Kwanza",
        "symbol_native": "Kz",
        "decimal_digits": 0,
        "rounding": 0,
        "code": "AOA",
        "name_plural": "Angolan Kwanzas"
    },
    "ARS": {
        "country": {
            "alpha3Code": "ARG",
            "region": "Americas",
            "subregion": "South America",
            "numericCode": "032",
            "flag": "https://restcountries.eu/data/arg.svg",
            "name": "Argentina"
        },
        "symbol": "AR$",
        "name": "Argentine Peso",
        "symbol_native": "$",
        "decimal_digits": 2,
        "rounding": 0,
        "code": "ARS",
        "name_plural": "Argentine pesos"
    },
    "AUD": {
        "country": {
            "alpha3Code": "NFK",
            "region": "Oceania",
            "subregion": "Australia and New Zealand",
            "numericCode": "574",
            "flag": "https://restcountries.eu/data/nfk.svg",
            "name": "Norfolk Island"
        },
        "symbol": "AU$",
        "name": "Australian Dollar",
        "symbol_native": "$",
        "decimal_digits": 2,
        "rounding": 0,
        "code": "AUD",
        "name_plural": "Australian dollars"
    },
    "AZN": {
        "country": {
            "alpha3Code": "AZE",
            "region": "Asia",
            "subregion": "Western Asia",
            "numericCode": "031",
            "flag": "https://restcountries.eu/data/aze.svg",
            "name": "Azerbaijan"
        },
        "symbol": "man.",
        "name": "Azerbaijani Manat",
        "symbol_native": "ман.",
        "decimal_digits": 2,
        "rounding": 0,
        "code": "AZN",
        "name_plural": "Azerbaijani manats"
    },
    "BAM": {
        "country": {
            "alpha3Code": "BIH",
            "region": "Europe",
            "subregion": "Southern Europe",
            "numericCode": "070",
            "flag": "https://restcountries.eu/data/bih.svg",
            "name": "Bosnia and Herzegovina"
        },
        "symbol": "KM",
        "name": "Bosnia-Herzegovina Convertible Mark",
        "symbol_native": "KM",
        "decimal_digits": 2,
        "rounding": 0,
        "code": "BAM",
        "name_plural": "Bosnia-Herzegovina convertible marks"
    },
    "BDT": {
        "country": {
            "alpha3Code": "BGD",
            "region": "Asia",
            "subregion": "Southern Asia",
            "numericCode": "050",
            "flag": "https://restcountries.eu/data/bgd.svg",
            "name": "Bangladesh"
        },
        "symbol": "Tk",
        "name": "Bangladeshi Taka",
        "symbol_native": "৳",
        "decimal_digits": 2,
        "rounding": 0,
        "code": "BDT",
        "name_plural": "Bangladeshi takas"
    },
    "BGN": {
        "country": {
            "alpha3Code": "BGR",
            "region": "Europe",
            "subregion": "Eastern Europe",
            "numericCode": "100",
            "flag": "https://restcountries.eu/data/bgr.svg",
            "name": "Bulgaria"
        },
        "symbol": "BGN",
        "name": "Bulgarian Lev",
        "symbol_native": "лв.",
        "decimal_digits": 2,
        "rounding": 0,
        "code": "BGN",
        "name_plural": "Bulgarian leva"
    },
    "BHD": {
        "country": {
            "alpha3Code": "BHR",
            "region": "Asia",
            "subregion": "Western Asia",
            "numericCode": "048",
            "flag": "https://restcountries.eu/data/bhr.svg",
            "name": "Bahrain"
        },
        "symbol": "BD",
        "name": "Bahraini Dinar",
        "symbol_native": "د.ب.‏",
        "decimal_digits": 3,
        "rounding": 0,
        "code": "BHD",
        "name_plural": "Bahraini dinars"
    },
    "BIF": {
        "country": {
            "alpha3Code": "BDI",
            "region": "Africa",
            "subregion": "Eastern Africa",
            "numericCode": "108",
            "flag": "https://restcountries.eu/data/bdi.svg",
            "name": "Burundi"
        },
        "symbol": "FBu",
        "name": "Burundian Franc",
        "symbol_native": "FBu",
        "decimal_digits": 0,
        "rounding": 0,
        "code": "BIF",
        "name_plural": "Burundian francs"
    },
    "BMD": {
        "country": {
            "alpha3Code": "BMU",
            "region": "Americas",
            "subregion": "Northern America",
            "numericCode": "060",
            "flag": "https://restcountries.eu/data/bmu.svg",
            "name": "Bermuda"
        },
        "symbol": "$",
        "name": "Bermudian Dollar",
        "symbol_native": "$",
        "decimal_digits": 2,
        "rounding": 0,
        "code": "BMD",
        "name_plural": "Bermudian Dollar"
    },
    "BOB": {
        "country": {
            "alpha3Code": "BOL",
            "region": "Americas",
            "subregion": "South America",
            "numericCode": "068",
            "flag": "https://restcountries.eu/data/bol.svg",
            "name": "Bolivia (Plurinational State of)"
        },
        "symbol": "Bs",
        "name": "Bolivian Boliviano",
        "symbol_native": "Bs",
        "decimal_digits": 2,
        "rounding": 0,
        "code": "BOB",
        "name_plural": "Bolivian bolivianos"
    },
    "BRL": {
        "country": {
            "alpha3Code": "BRA",
            "region": "Americas",
            "subregion": "South America",
            "numericCode": "076",
            "flag": "https://restcountries.eu/data/bra.svg",
            "name": "Brazil"
        },
        "symbol": "R$",
        "name": "Brazilian Real",
        "symbol_native": "R$",
        "decimal_digits": 2,
        "rounding": 0,
        "code": "BRL",
        "name_plural": "Brazilian reals"
    },
    "BWP": {
        "country": {
            "alpha3Code": "BWA",
            "region": "Africa",
            "subregion": "Southern Africa",
            "numericCode": "072",
            "flag": "https://restcountries.eu/data/bwa.svg",
            "name": "Botswana"
        },
        "symbol": "BWP",
        "name": "Botswanan Pula",
        "symbol_native": "P",
        "decimal_digits": 2,
        "rounding": 0,
        "code": "BWP",
        "name_plural": "Botswanan pulas"
    },
    "BZD": {
        "country": {
            "alpha3Code": "BLZ",
            "region": "Americas",
            "subregion": "Central America",
            "numericCode": "084",
            "flag": "https://restcountries.eu/data/blz.svg",
            "name": "Belize"
        },
        "symbol": "BZ$",
        "name": "Belize Dollar",
        "symbol_native": "$",
        "decimal_digits": 2,
        "rounding": 0,
        "code": "BZD",
        "name_plural": "Belize dollars"
    },
    "CAD": {
        "country": {
            "alpha3Code": "CAN",
            "region": "Americas",
            "subregion": "Northern America",
            "numericCode": "124",
            "flag": "https://restcountries.eu/data/can.svg",
            "name": "Canada"
        },
        "symbol": "CA$",
        "name": "Canadian Dollar",
        "symbol_native": "$",
        "decimal_digits": 2,
        "rounding": 0,
        "code": "CAD",
        "name_plural": "Canadian dollars"
    },
    "CDF": {
        "country": {
            "alpha3Code": "COD",
            "region": "Africa",
            "subregion": "Middle Africa",
            "numericCode": "180",
            "flag": "https://restcountries.eu/data/cod.svg",
            "name": "Congo (Democratic Republic of the)"
        },
        "symbol": "CDF",
        "name": "Congolese Franc",
        "symbol_native": "FrCD",
        "decimal_digits": 2,
        "rounding": 0,
        "code": "CDF",
        "name_plural": "Congolese francs"
    },
    "CHF": {
        "country": {
            "alpha3Code": "CHE",
            "region": "Europe",
            "subregion": "Western Europe",
            "numericCode": "756",
            "flag": "https://restcountries.eu/data/che.svg",
            "name": "Switzerland"
        },
        "symbol": "CHF",
        "name": "Swiss Franc",
        "symbol_native": "CHF",
        "decimal_digits": 2,
        "rounding": 0.05,
        "code": "CHF",
        "name_plural": "Swiss francs"
    },
    "CLP": {
        "country": {
            "alpha3Code": "CHL",
            "region": "Americas",
            "subregion": "South America",
            "numericCode": "152",
            "flag": "https://restcountries.eu/data/chl.svg",
            "name": "Chile"
        },
        "symbol": "CL$",
        "name": "Chilean Peso",
        "symbol_native": "$",
        "decimal_digits": 0,
        "rounding": 0,
        "code": "CLP",
        "name_plural": "Chilean pesos"
    },
    "CNY": {
        "country": {
            "alpha3Code": "CHN",
            "region": "Asia",
            "subregion": "Eastern Asia",
            "numericCode": "156",
            "flag": "https://restcountries.eu/data/chn.svg",
            "name": "China"
        },
        "symbol": "CN¥",
        "name": "Chinese Yuan",
        "symbol_native": "CN¥",
        "decimal_digits": 2,
        "rounding": 0,
        "code": "CNY",
        "name_plural": "Chinese yuan"
    },
    "COP": {
        "country": {
            "alpha3Code": "COL",
            "region": "Americas",
            "subregion": "South America",
            "numericCode": "170",
            "flag": "https://restcountries.eu/data/col.svg",
            "name": "Colombia"
        },
        "symbol": "CO$",
        "name": "Colombian Peso",
        "symbol_native": "$",
        "decimal_digits": 0,
        "rounding": 0,
        "code": "COP",
        "name_plural": "Colombian pesos"
    },
    "CRC": {
        "country": {
            "alpha3Code": "CRI",
            "region": "Americas",
            "subregion": "Central America",
            "numericCode": "188",
            "flag": "https://restcountries.eu/data/cri.svg",
            "name": "Costa Rica"
        },
        "symbol": "₡",
        "name": "Costa Rican Colón",
        "symbol_native": "₡",
        "decimal_digits": 0,
        "rounding": 0,
        "code": "CRC",
        "name_plural": "Costa Rican colóns"
    },
    "CVE": {
        "country": {
            "alpha3Code": "CPV",
            "region": "Africa",
            "subregion": "Western Africa",
            "numericCode": "132",
            "flag": "https://restcountries.eu/data/cpv.svg",
            "name": "Cabo Verde"
        },
        "symbol": "CV$",
        "name": "Cape Verdean Escudo",
        "symbol_native": "CV$",
        "decimal_digits": 2,
        "rounding": 0,
        "code": "CVE",
        "name_plural": "Cape Verdean escudos"
    },
    "CZK": {
        "country": {
            "alpha3Code": "CZE",
            "region": "Europe",
            "subregion": "Eastern Europe",
            "numericCode": "203",
            "flag": "https://restcountries.eu/data/cze.svg",
            "name": "Czech Republic"
        },
        "symbol": "Kč",
        "name": "Czech Republic Koruna",
        "symbol_native": "Kč",
        "decimal_digits": 2,
        "rounding": 0,
        "code": "CZK",
        "name_plural": "Czech Republic korunas"
    },
    "DJF": {
        "country": {
            "alpha3Code": "DJI",
            "region": "Africa",
            "subregion": "Eastern Africa",
            "numericCode": "262",
            "flag": "https://restcountries.eu/data/dji.svg",
            "name": "Djibouti"
        },
        "symbol": "Fdj",
        "name": "Djiboutian Franc",
        "symbol_native": "Fdj",
        "decimal_digits": 0,
        "rounding": 0,
        "code": "DJF",
        "name_plural": "Djiboutian francs"
    },
    "DKK": {
        "country": {
            "alpha3Code": "GRL",
            "region": "Americas",
            "subregion": "Northern America",
            "numericCode": "304",
            "flag": "https://restcountries.eu/data/grl.svg",
            "name": "Greenland"
        },
        "symbol": "Dkr",
        "name": "Danish Krone",
        "symbol_native": "kr",
        "decimal_digits": 2,
        "rounding": 0,
        "code": "DKK",
        "name_plural": "Danish kroner"
    },
    "DOP": {
        "country": {
            "alpha3Code": "DOM",
            "region": "Americas",
            "subregion": "Caribbean",
            "numericCode": "214",
            "flag": "https://restcountries.eu/data/dom.svg",
            "name": "Dominican Republic"
        },
        "symbol": "RD$",
        "name": "Dominican Peso",
        "symbol_native": "RD$",
        "decimal_digits": 2,
        "rounding": 0,
        "code": "DOP",
        "name_plural": "Dominican pesos"
    },
    "DZD": {
        "country": {
            "alpha3Code": "DZA",
            "region": "Africa",
            "subregion": "Northern Africa",
            "numericCode": "012",
            "flag": "https://restcountries.eu/data/dza.svg",
            "name": "Algeria"
        },
        "symbol": "DA",
        "name": "Algerian Dinar",
        "symbol_native": "د.ج.‏",
        "decimal_digits": 2,
        "rounding": 0,
        "code": "DZD",
        "name_plural": "Algerian dinars"
    },
    "EGP": {
        "country": {
            "alpha3Code": "EGY",
            "region": "Africa",
            "subregion": "Northern Africa",
            "numericCode": "818",
            "flag": "https://restcountries.eu/data/egy.svg",
            "name": "Egypt"
        },
        "symbol": "EGP",
        "name": "Egyptian Pound",
        "symbol_native": "ج.م.‏",
        "decimal_digits": 2,
        "rounding": 0,
        "code": "EGP",
        "name_plural": "Egyptian pounds"
    },
    "ERN": {
        "country": {
            "alpha3Code": "ERI",
            "region": "Africa",
            "subregion": "Eastern Africa",
            "numericCode": "232",
            "flag": "https://restcountries.eu/data/eri.svg",
            "name": "Eritrea"
        },
        "symbol": "Nfk",
        "name": "Eritrean Nakfa",
        "symbol_native": "Nfk",
        "decimal_digits": 2,
        "rounding": 0,
        "code": "ERN",
        "name_plural": "Eritrean nakfas"
    },
    "ETB": {
        "country": {
            "alpha3Code": "ETH",
            "region": "Africa",
            "subregion ": "Eastern Africa",
            "numericCode": "231",
            "flag": "https://restcountries.eu/data/eth.svg",
            "name": "Ethiopia"
        },
        "symbol": "Br",
        "name": "Ethiopian Birr",
        "symbol_native": "Br",
        "decimal_digits": 2,
        "rounding": 0,
        "code": "ETB",
        "name_plural": "Ethiopian birrs"
    },
    "EUR": {
        "country": {
            "alpha3Code": "ESP",
            "region": "Europe",
            "subregion": "Southern Europe",
            "numericCode": "724",
            "flag": "https://restcountries.eu/data/esp.svg",
            "name": "Spain"
        },
        "symbol": "€",
        "name": "Euro",
        "symbol_native": "€",
        "decimal_digits": 2,
        "rounding": 0,
        "code": "EUR",
        "name_plural": "Euros"
    },
    "FKP": {
        "country": {
            "alpha3Code": "FLK",
            "region": "Americas",
            "subregion": "South America",
            "numericCode": "238",
            "flag": "https://restcountries.eu/data/flk.svg",
            "name": "Falkland Islands (Malvinas)"
        },
        "symbol": "£",
        "name": "Falkland Island Pound",
        "symbol_native": "£",
        "decimal_digits": 2,
        "rounding": 0,
        "code": "FKP",
        "name_plural": "Falkland Island Pounds"
    },
    "GBP": {
        "country": {
            "alpha3Code": "GBR",
            "region": "Europe",
            "subregion": "Northern Europe",
            "numericCode": "826",
            "flag": "https://restcountries.eu/data/gbr.svg",
            "name": "United Kingdom of Great Britain and Northern Ireland"
        },
        "symbol": "£",
        "name": "British Pound Sterling",
        "symbol_native": "£",
        "decimal_digits": 2,
        "rounding": 0,
        "code": "GBP",
        "name_plural": "British pounds sterling"
    },
    "GEL": {
        "country": {
            "alpha3Code": "GEO",
            "region": "Asia",
            "subregion": "Western Asia",
            "numericCode": "268",
            "flag": "https://restcountries.eu/data/geo.svg",
            "name": "Georgia"
        },
        "symbol": "GEL",
        "name": "Georgian Lari",
        "symbol_native": "GEL",
        "decimal_digits": 2,
        "rounding": 0,
        "code": "GEL",
        "name_plural": "Georgian laris"
    },
    "GHS": {
        "country": {
            "alpha3Code ": "GHA",
            "region": "Africa",
            "subregion": "Western Africa",
            "numericCode": "288",
            "flag": "https://restcountries.eu/data/gha.svg",
            "name": "Ghana"
        },
        "symbol": "GH₵",
        "name": "Ghanaian Cedi",
        "symbol_native": "GH₵",
        "decimal_digits": 2,
        "rounding": 0,
        "code": "GHS",
        "name_plural": "Ghanaian cedis"
    },
    "GIP": {
        "country": {
            "alpha3Code": "GIB",
            "region": "Europe",
            "subregion": "Southern Europe",
            "numericCode": "292",
            "flag": "https://restcountries.eu/data/gib.svg",
            "name": "Gibraltar"
        },
        "symbol": "£",
        "name": "Gibraltar Pound",
        "symbol_native": "£",
        "decimal_digits": 2,
        "rounding": 0,
        "code": "GHS",
        "name_plural": "Gibraltar pound"
    },
    "GNF": {
        "country": {
            "alpha3Code": "GIN",
            "region": "Africa",
            "subregion": "Western Africa",
            "numericCode": "324",
            "flag": "https://restcountries.eu/data/gin.svg",
            "name": "Guinea"
        },
        "symbol": "FG",
        "name": "Guinean Franc",
        "symbol_native": "FG",
        "decimal_digits": 0,
        "rounding": 0,
        "code": "GNF",
        "name_plural": "Guinean francs"
    },
    "GTQ": {
        "country": {
            "alpha3Code": "GTM",
            "region": "Americas",
            "subregion": "Central America",
            "numericCode": "320",
            "flag": "https://restcountries.eu/data/gtm.svg",
            "name": "Guatemala"
        },
        "symbol": "GTQ",
        "name": "Guatemalan Quetzal",
        "symbol_native": "Q",
        "decimal_digits": 2,
        "rounding": 0,
        "code": "GTQ",
        "name_plural": "Guatemalan quetzals"
    },
    "HKD": {
        "country": {
            "alpha3Code": "HKG",
            "region": "Asia",
            "subregion": "Eastern Asia",
            "numericCode": "344",
            "flag": "https://restcountries.eu/data/hkg.svg",
            "name": "Hong Kong"
        },
        "symbol": "HK$",
        "name": "Hong Kong Dollar",
        "symbol_native": "$",
        "decimal_digits": 2,
        "rounding": 0,
        "code": "HKD",
        "name_plural": "Hong Kong dollars"
    },
    "HNL": {
        "country": {
            "alpha3Code": "HND",
            "region": "Americas",
            "subregion": "Central America",
            "numericCode": "340",
            "flag": "https://restcountries.eu/data/hnd.svg",
            "name": "Honduras"
        },
        "symbol": "HNL",
        "name": "Honduran Lempira",
        "symbol_native": "L",
        "decimal_digits": 2,
        "rounding": 0,
        "code": "HNL",
        "name_plural": "Honduran lempiras"
    },
    "HRK": {
        "country": {
            "alpha3Code": "HRV",
            "region": "Europe",
            "subregion": "SouthernEurope",
            "numericCode": "191",
            "flag": "https://restcountries.eu/data/hrv.svg",
            "name": "Croatia"
        },
        "symbol": "kn",
        "name": "Croatian Kuna",
        "symbol_native": "kn",
        "decimal_digits": 2,
        "rounding": 0,
        "code": "HRK",
        "name_plural": "Croatian kunas"
    },
    "HUF": {
        "country": {
            "alpha3Code": "HUN",
            "region": "Europe",
            "subregion": "Eastern Europe",
            "numericCode": "348",
            "flag": "https://restcountries.eu/data/hun.svg",
            "name": "Hungary"
        },
        "symbol": "Ft",
        "name": "Hungarian Forint",
        "symbol_native": "Ft",
        "decimal_digits": 0,
        "rounding": 0,
        "code": "HUF",
        "name_plural": "Hungarian forints"
    },
    "IDR": {
        "country": {
            "alpha3Code": "IDN",
            "region": "Asia",
            "subregion": "South-Eastern Asia",
            "numericCode": "360",
            "flag": "https://restcountries.eu/data/idn.svg",
            "name": "Indonesia"
        },
        "symbol": "Rp",
        "name": "Indonesian Rupiah",
        "symbol_native": "Rp",
        "decimal_digits": 0,
        "rounding": 0,
        "code": "IDR",
        "name_plural": "Indonesian rupiahs"
    },
    "ILS": {
        "country": {
            "alpha3Code": "PSE",
            "region": "Asia",
            "subregion": "Western Asia",
            "numericCode": "275",
            "flag": "https://restcountries.eu/data/pse.svg",
            "name": "Palestine, State of"
        },
        "symbol": "₪",
        "name": "Israeli New Sheqel",
        "symbol_native": "₪",
        "decimal_digits": 2,
        "rounding": 0,
        "code": "ILS",
        "name_plural": "Israeli new sheqels"
    },
    "INR": {
        "country": {
            "alpha3Code": "IND",
            "region": "Asia",
            "subregion": "Southern Asia",
            "numericCode": "356",
            "flag": "https://restcountries.eu/data/ind.svg",
            "name": "India"
        },
        "symbol": "Rs",
        "name": "Indian Rupee",
        "symbol_native": "টকা",
        "decimal_digits": 2,
        "rounding": 0,
        "code": "INR",
        "name_plural": "Indian rupees"
    },
    "IQD": {
        "country": {
            "alpha3Code": "IRQ",
            "region": "Asia",
            "subregion": "Western Asia",
            "numericCode": "368",
            "flag": "https://restcountries.eu/data/irq.svg",
            "name": "Iraq"
        },
        "symbol": "IQD",
        "name": "Iraqi Dinar",
        "symbol_native": "د.ع.‏",
        "decimal_digits": 0,
        "rounding": 0,
        "code": "IQD",
        "name_plural": "Iraqi dinars"
    },
    "IRR": {
        "country": {
            "alpha3Code": "IRN",
            "region": "Asia",
            "subregion": "Southern Asia",
            "numericCode": "364",
            "flag": "https://restcountries.eu/data/irn.svg",
            "name": "Iran (Islamic Republic of)"
        },
        "symbol": "IRR",
        "name": "Iranian Rial",
        "symbol_native": "﷼",
        "decimal_digits": 0,
        "rounding": 0,
        "code": "IRR",
        "name_plural": "Iranian rials"
    },
    "ISK": {
        "country": {
            "alpha3Code": "ISL",
            "region": "Europe",
            "subregion": "Northern Europe",
            "numericCode": "352",
            "flag": "https://restcountries.eu/data/isl.svg",
            "name": "Iceland"
        },
        "symbol": "Ikr",
        "name": "Icelandic Króna",
        "symbol_native": "kr",
        "decimal_digits": 0,
        "rounding": 0,
        "code": "ISK",
        "name_plural": "Icelandic krónur"
    },
    "JMD": {
        "country": {
            "alpha3Code": "JAM",
            "region": "Americas",
            "subregion": "Caribbean",
            "numericCode": "388",
            "flag": "https://restcountries.eu/data/jam.svg",
            "name": "Jamaica"
        },
        "symbol": "J$",
        "name": "Jamaican Dollar",
        "symbol_native": "$",
        "decimal_digits": 2,
        "rounding": 0,
        "code": "JMD",
        "name_plural": "Jamaican dollars"
    },
    "JOD": {
        "country": {
            "alpha3Code": "JOR",
            "region": "Asia",
            "subregion": "Western Asia",
            "numericCode": "400",
            "flag": "https://restcountries.eu/data/jor.svg",
            "name": "Jordan"
        },
        "symbol": "JD",
        "name": "Jordanian Dinar",
        "symbol_native": "د.أ.‏",
        "decimal_digits": 3,
        "rounding": 0,
        "code": "JOD",
        "name_plural": "Jordanian dinars"
    },
    "JPY": {
        "country": {
            "alpha3Code": "JPN",
            "region": "Asia",
            "subregion": "Eastern Asia",
            "numericCode": "392",
            "flag": "https://restcountries.eu/data/jpn.svg",
            "name": "Japan"
        },
        "symbol": "¥",
        "name": "Japanese Yen",
        "symbol_native": "￥",
        "decimal_digits": 0,
        "rounding": 0,
        "code": "JPY",
        "name_plural": "Japanese yen"
    },
    "KES": {
        "country": {
            "alpha3Code": "KEN",
            "region": "Africa",
            "subregion": "Eastern Africa",
            "numericCode": "404",
            "flag": "https://restcountries.eu/data/ken.svg",
            "name": "Kenya"
        },
        "symbol": "с",
        "name": "Kyrgyzstani som",
        "symbol_native": "с",
        "decimal_digits": 2,
        "rounding": 0,
        "code": "KES",
        "name_plural": "Kyrgyzstani som"
    },
    "KGS": {
        "country": {
            "alpha3Code": "KGZ",
            "region": "Asia",
            "subregion": "Central Asia",
            "numericCode": "417",
            "flag": "https://restcountries.eu/data/kgz.svg",
            "name": "Kyrgyzstan"
        },
        "symbol": "Ksh",
        "name": "Kyrgyzstani Som",
        "symbol_native": "Ksh",
        "decimal_digits": 2,
        "rounding": 0,
        "code": "KES",
        "name_plural": "Kenyan shillings"
    },
    "KMF": {
        "country": {
            "alpha3Code": "COM",
            "region": "Africa",
            "subregion": "Eastern Africa",
            "numericCode": "174",
            "flag": "https://restcountries.eu/data/com.svg",
            "name": "Comoros"
        },
        "symbol": "CF",
        "name": "Comorian Franc",
        "symbol_native": "FC",
        "decimal_digits": 0,
        "rounding": 0,
        "code": "KMF",
        "name_plural": "Comorian francs"
    },
    "KRW": {
        "country": {
            "alpha3Code": "KOR",
            "region": "Asia",
            "subregion": "Eastern Asia",
            "numericCode": "410",
            "flag": "https://restcountries.eu/data/kor.svg",
            "name": "Korea (Republic of)"
        },
        "symbol": "₩",
        "name": "South Korean Won",
        "symbol_native": "₩",
        "decimal_digits": 0,
        "rounding": 0,
        "code": "KRW",
        "name_plural": "South Korean won"
    },
    "KWD": {
        "country": {
            "alpha3Code": "KWT",
            "region": "Asia",
            "subregion": "WesternAsia",
            "numericCode": "414",
            "flag": "https://restcountries.eu/data/kwt.svg",
            "name": "Kuwait"
        },
        "symbol": "KD",
        "name": "Kuwaiti Dinar",
        "symbol_native": "د.ك.‏",
        "decimal_digits": 3,
        "rounding": 0,
        "code": "KWD",
        "name_plural": "Kuwaiti dinars"
    },
    "KYD": {
        "country": {
            "alpha3Code": "CYM",
            "region": "Americas",
            "subregion": "Caribbean",
            "numericCode": "136",
            "flag": "https://restcountries.eu/data/cym.svg",
            "name": "Cayman Islands"
        },
        "symbol": "$",
        "name": "Cayman Islands dollar",
        "symbol_native": "$‏",
        "decimal_digits": 2,
        "rounding": 0,
        "code": "KYD",
        "name_plural": "Cayman Islands dollarS"
    },
    "KZT": {
        "country": {
            "alpha3Code": "KAZ",
            "region": "Asia",
            "subregion": "Central Asia",
            "numericCode": "398",
            "flag": "https://restcountries.eu/data/kaz.svg",
            "name": "Kazakhstan"
        },
        "symbol": "KZT",
        "name": "Kazakhstani Tenge",
        "symbol_native": "тңг.",
        "decimal_digits": 2,
        "rounding": 0,
        "code": "KZT",
        "name_plural": "Kazakhstani tenges"
    },
    "LAK": {
        "country": {
            "alpha3Code": "LAO",
            "region": "Asia",
            "subregion": "South-Eastern Asia",
            "numericCode": "418",
            "flag": "https://restcountries.eu/data/lao.svg",
            "name": "Lao People's Democratic Republic"
        },
        "symbol": "₭",
        "name": "Lao kip",
        "symbol_native": "₭‏",
        "decimal_digits": 0,
        "rounding": 0,
        "code": "LAK",
        "name_plural": "Lao kip"
    },
    "LBP": {
        "country": {
            "alpha3Code": "LBN",
            "region": "Asia",
            "subregion": "Western Asia",
            "numericCode": "422",
            "flag": "https://restcountries.eu/data/lbn.svg",
            "name": "Lebanon"
        },
        "symbol": "LB£",
        "name": "Lebanese Pound",
        "symbol_native": "ل.ل.‏",
        "decimal_digits": 0,
        "rounding": 0,
        "code": "LBP",
        "name_plural": "Lebanese pounds"
    },
    "LKR": {
        "country": {
            "alpha3Code ": "LKA",
            "region": "Asia",
            "subregion": "Southern Asia",
            "numericCode": "144",
            "flag": "https://restcountries.eu/data/lka.svg",
            "name": "Sri Lanka"
        },
        "symbol": "SLRs",
        "name": "Sri Lankan Rupee",
        "symbol_native": "SL Re",
        "decimal_digits": 2,
        "rounding": 0,
        "code": "LKR",
        "name_plural": "Sri Lankan rupees"
    },
    "LRD": {
        "country": {
            "alpha3Code": "LBR",
            "region": "Africa",
            "subregion": "Western Africa",
            "numericCode": "430",
            "flag": "https://restcountries.eu/data/lbr.svg",
            "name": "Liberia"
        },
        "symbol": "$",
        "name": "Liberian Dollar",
        "symbol_native": "$",
        "decimal_digits": 2,
        "rounding": 0,
        "code": "LRD",
        "name_plural": "Liberian Dollars"
    },
    "LYD": {
        "country": {
            "alpha3Code": "LBY",
            "region": "Africa",
            "subregion": "Northern Africa",
            "numericCode": "434",
            "flag": "https://restcountries.eu/data/lby.svg",
            "name": "Libya"
        },
        "symbol": "LD",
        "name": "Libyan Dinar",
        "symbol_native": "د.ل.‏",
        "decimal_digits": 3,
        "rounding": 0,
        "code": "LYD",
        "name_plural": "Libyan dinars"
    },
    "MAD": {
        "country": {
            "alpha3Code": "MAR",
            "region": "Africa",
            "subregion": "Northern Africa",
            "numericCode": "504",
            "flag": "https://restcountries.eu/data/mar.svg",
            "name": "Morocco"
        },
        "symbol": "MAD",
        "name": "Moroccan Dirham",
        "symbol_native": "د.م.‏",
        "decimal_digits": 2,
        "rounding": 0,
        "code": "MAD",
        "name_plural": "Moroccan dirhams"
    },
    "MDL": {
        "country": {
            "alpha3Code": "MDA",
            "region": "Europe",
            "subregion": "Eastern Europe",
            "numericCode": "498",
            "flag": "https://restcountries.eu/data/mda.svg",
            "name": "Moldova (Republic of)"
        },
        "symbol": "MDL",
        "name": "Moldovan Leu",
        "symbol_native": "MDL",
        "decimal_digits": 2,
        "rounding": 0,
        "code": "MDL",
        "name_plural": "Moldovan lei"
    },
    "MGA": {
        "country": {
            "alpha3Code": "MDG",
            "region": "Africa",
            "subregion": "Eastern Africa",
            "numericCode": "450",
            "flag": "https://restcountries.eu/data/mdg.svg",
            "name": "Madagascar"
        },
        "symbol": "MGA",
        "name": "Malagasy Ariary",
        "symbol_native": "MGA",
        "decimal_digits": 0,
        "rounding": 0,
        "code": "MGA",
        "name_plural": "Malagasy Ariaries"
    },
    "MKD": {
        "country": {
            "alpha3Code": "MKD",
            "region": "Europe",
            "subregion": "Southern Europe",
            "numericCode": "807",
            "flag": "https://restcountries.eu/data/mkd.svg",
            "name": "Macedonia (the former Yugoslav Republic of)"
        },
        "symbol": "MKD",
        "name": "Macedonian Denar",
        "symbol_native": "MKD",
        "decimal_digits": 2,
        "rounding": 0,
        "code": "MKD",
        "name_plural": "Macedonian denari"
    },
    "MMK": {
        "country": {
            "alpha3Code": "MMR",
            "region": "Asia",
            "subregion": "South-Eastern Asia",
            "numericCode": "104",
            "flag": "https://restcountries.eu/data/mmr.svg",
            "name": "Myanmar"
        },
        "symbol": "MMK",
        "name": "Myanma Kyat",
        "symbol_native": "K",
        "decimal_digits": 0,
        "rounding": 0,
        "code": "MMK",
        "name_plural": "Myanma kyats"
    },
    "MOP": {
        "country": {
            "alpha3Code": "MAC",
            "region": "Asia",
            "subregion": "Eastern Asia",
            "numericCode": "446",
            "flag": "https://restcountries.eu/data/mac.svg",
            "name": "Macao"
        },
        "symbol": "MOP$",
        "name": "Macanese Pataca",
        "symbol_native": "MOP$",
        "decimal_digits": 2,
        "rounding": 0,
        "code": "MOP",
        "name_plural": "Macanese patacas"
    },
    "MUR": {
        "country": {
            "alpha3Code": "MUS",
            "region": "Africa",
            "subregion": "Eastern Africa",
            "numericCode": "480",
            "flag": "https://restcountries.eu/data/mus.svg",
            "name": "Mauritius"
        },
        "symbol": "MURs",
        "name": "Mauritian Rupee",
        "symbol_native": "MURs",
        "decimal_digits": 0,
        "rounding": 0,
        "code": "MUR",
        "name_plural": "Mauritian rupees"
    },
    "MWK": {
        "country": {
            "alpha3Code": "MWI",
            "region": "Africa",
            "subregion": "Eastern Africa",
            "numericCode": "454",
            "flag": "https://restcountries.eu/data/mwi.svg",
            "name": "Malawi"
        },
        "symbol": "MK",
        "name": "Malawian Kwacha",
        "symbol_native": "MK",
        "decimal_digits": 2,
        "rounding": 0,
        "code": "MWK",
        "name_plural": "Malawian Kwacha"
    },
    "MXN": {
        "country": {
            "alpha3Code": "MEX",
            "region": "Americas",
            "subregion": "Central America",
            "numericCode": "484",
            "flag": "https://restcountries.eu/data/mex.svg",
            "name": "Mexico"
        },
        "symbol": "MX$",
        "name": "Mexican Peso",
        "symbol_native": "$",
        "decimal_digits": 2,
        "rounding": 0,
        "code": "MXN",
        "name_plural": "Mexican pesos"
    },
    "MYR": {
        "country": {
            "alpha3Code": "MYS",
            "region": "Asia",
            "subregion": "South-Eastern Asia",
            "numericCode": "458",
            "flag": "https://restcountries.eu/data/mys.svg",
            "name": "Malaysia"
        },
        "symbol": "RM",
        "name": "Malaysian Ringgit",
        "symbol_native": "RM",
        "decimal_digits": 2,
        "rounding": 0,
        "code": "MYR",
        "name_plural": "Malaysian ringgits"
    },
    "MZN": {
        "country": {
            "alpha3Code": "MOZ",
            "region": "Africa",
            "subregion": "Eastern Africa",
            "numericCode": "508",
            "flag": "https://restcountries.eu/data/moz.svg",
            "name": "Mozambique"
        },
        "symbol": "MTn",
        "name": "Mozambican Metical",
        "symbol_native": "MTn",
        "decimal_digits": 2,
        "rounding": 0,
        "code": "MZN",
        "name_plural": "Mozambican meticals"
    },
    "NGN": {
        "country": {
            "alpha3Code": "NGA",
            "region": "Africa",
            "subregion": "Western Africa",
            "numericCode": "566",
            "flag": "https://restcountries.eu/data/nga.svg",
            "name": "Nigeria"
        },
        "symbol": "₦",
        "name": "Nigerian Naira",
        "symbol_native": "₦",
        "decimal_digits": 2,
        "rounding": 0,
        "code": "NGN",
        "name_plural": "Nigerian nairas"
    },
    "NIO": {
        "country": {
            "alpha3Code": "NIC",
            "region": "Americas",
            "subregion": "Central America",
            "numericCode": "558",
            "flag": "https://restcountries.eu/data/nic.svg",
            "name": "Nicaragua"
        },
        "symbol": "C$",
        "name": "Nicaraguan Córdoba",
        "symbol_native": "C$",
        "decimal_digits": 2,
        "rounding": 0,
        "code": "NIO",
        "name_plural": "Nicaraguan córdobas"
    },
    "NOK": {
        "country": {
            "alpha3Code": "SJM",
            "region": "Europe",
            "subregion": "Northern Europe",
            "numericCode": "744",
            "flag": "https://restcountries.eu/data/sjm.svg",
            "name": "Svalbard and Jan Mayen"
        },
        "symbol": "Nkr",
        "name": "Norwegian Krone",
        "symbol_native": "kr",
        "decimal_digits": 2,
        "rounding": 0,
        "code": "NOK",
        "name_plural": "Norwegian kroner"
    },
    "NPR": {
        "country": {
            "alpha3Code": "NPL",
            "region": "Asia",
            "subregion": "Southern Asia",
            "numericCode": "524",
            "flag": "https://restcountries.eu/data/npl.svg",
            "name": "Nepal"
        },
        "symbol": "NPRs",
        "name": "Nepalese Rupee",
        "symbol_native": "नेरू",
        "decimal_digits": 2,
        "rounding": 0,
        "code": "NPR",
        "name_plural": "Nepalese rupees"
    },
    "NZD": {
        "country": {
            "alpha3Code": "TKL",
            "region": "Oceania",
            "subregion": "Polynesia",
            "numericCode": "772",
            "flag": "https://restcountries.eu/data/tkl.svg",
            "name": "Tokelau"
        },
        "symbol": "NZ$",
        "name": "New Zealand Dollar",
        "symbol_native": "$",
        "decimal_digits": 2,
        "rounding": 0,
        "code": "NZD",
        "name_plural": "New Zealand dollars"
    },
    "OMR": {
        "country": {
            "alpha3Code": "OMN",
            "region": "Asia",
            "subregion": "Western Asia",
            "numericCode": "512",
            "flag": "https://restcountries.eu/data/omn.svg",
            "name": "Oman"
        },
        "symbol": "OMR",
        "name": "Omani Rial",
        "symbol_native": "ر.ع.‏",
        "decimal_digits": 3,
        "rounding": 0,
        "code": "OMR",
        "name_plural": "Omani rials"
    },
    "PEN": {
        "country": {
            "alpha3Code": "PER",
            "region": "Americas",
            "subregion": "South America",
            "numericCode": "604",
            "flag": "https://restcountries.eu/data/per.svg",
            "name": "Peru"
        },
        "symbol": "S/.",
        "name": "Peruvian Nuevo Sol",
        "symbol_native": "S/.",
        "decimal_digits": 2,
        "rounding": 0,
        "code": "PEN",
        "name_plural": "Peruvian nuevos soles"
    },
    "PHP": {
        "country": {
            "alpha3Code": "PHL",
            "region": "Asia",
            "subregion": "South-Eastern Asia",
            "numericCode": "608",
            "flag": "https://restcountries.eu/data/phl.svg",
            "name": "Philippines"
        },
        "symbol": "₱",
        "name": "Philippine Peso",
        "symbol_native": "₱",
        "decimal_digits": 2,
        "rounding": 0,
        "code": "PHP",
        "name_plural": "Philippine pesos"
    },
    "PKR": {
        "country": {
            "alpha3Code": "PAK",
            "region": "Asia",
            "subregion": "Southern Asia",
            "numericCode": "586",
            "flag": "https://restcountries.eu/data/pak.svg",
            "name": "Pakistan"
        },
        "symbol": "PKRs",
        "name": "Pakistani Rupee",
        "symbol_native": "₨",
        "decimal_digits": 0,
        "rounding": 0,
        "code": "PKR",
        "name_plural": "Pakistani rupees"
    },
    "PLN": {
        "country": {
            "alpha3Code": "POL",
            "region": "Europe",
            "subregion": "Eastern Europe",
            "numericCode": "616",
            "flag": "https://restcountries.eu/data/pol.svg",
            "name": "Poland"
        },
        "symbol": "zł",
        "name": "Polish Zloty",
        "symbol_native": "zł",
        "decimal_digits": 2,
        "rounding": 0,
        "code": "PLN",
        "name_plural": "Polish zlotys"
    },
    "PYG": {
        "country": {
            "alpha3Code": "PRY",
            "region": "Americas",
            "subregion": "South America",
            "numericCode": "600",
            "flag": "https://restcountries.eu/data/pry.svg",
            "name": "Paraguay"
        },
        "symbol": "₲",
        "name": "Paraguayan Guarani",
        "symbol_native": "₲",
        "decimal_digits": 0,
        "rounding": 0,
        "code": "PYG",
        "name_plural": "Paraguayan guaranis"
    },
    "QAR": {
        "country": {
            "alpha3Code": "QAT",
            "region": "Asia",
            "subregion": "Western Asia",
            "numericCode": "634",
            "flag": "https://restcountries.eu/data/qat.svg",
            "name": "Qatar"
        },
        "symbol": "QR",
        "name": "Qatari Rial",
        "symbol_native": "ر.ق.‏",
        "decimal_digits": 2,
        "rounding": 0,
        "code": "QAR",
        "name_plural": "Qatari rials"
    },
    "RON": {
        "country": {
            "alpha3Code": "ROU",
            "region": "Europe",
            "subregion": "Eastern Europe",
            "numericCode": "642",
            "flag": "https://restcountries.eu/data/rou.svg",
            "name": "Romania"
        },
        "symbol": "RON",
        "name": "Romanian Leu",
        "symbol_native": "RON",
        "decimal_digits": 2,
        "rounding": 0,
        "code": "RON",
        "name_plural": "Romanian lei"
    },
    "RSD": {
        "country": {
            "alpha3Code": "SRB",
            "region": "Europe",
            "subregion": "Southern Europe",
            "numericCode": "688",
            "flag": "https://restcountries.eu/data/srb.svg",
            "name": "Serbia"
        },
        "symbol": "din.",
        "name": "Serbian Dinar",
        "symbol_native": "дин.",
        "decimal_digits": 0,
        "rounding": 0,
        "code": "RSD",
        "name_plural": "Serbian dinars"
    },
    "RUB": {
        "country": {
            "alpha3Code": "RUS",
            "region": "Europe",
            "subregion": "Eastern Europe",
            "numericCode": "643",
            "flag": "https://restcountries.eu/data/rus.svg",
            "name": "Russian Federation"
        },
        "symbol": "RUB",
        "name": "Russian Ruble",
        "symbol_native": "руб.",
        "decimal_digits": 2,
        "rounding": 0,
        "code": "RUB",
        "name_plural": "Russian rubles"
    },
    "RWF": {
        "country": {
            "alpha3Code": "RWA",
            "region": "Africa",
            "subregion": "Eastern Africa",
            "numericCode": "646",
            "flag": "https://restcountries.eu/data/rwa.svg",
            "name": "Rwanda"
        },
        "symbol": "RWF",
        "name": "Rwandan Franc",
        "symbol_native": "FR",
        "decimal_digits": 0,
        "rounding": 0,
        "code": "RWF",
        "name_plural": "Rwandan francs"
    },
    "SAR": {
        "country": {
            "alpha3Code": "SAU",
            "region": "Asia",
            "subregion": "Western Asia",
            "numericCode": "682",
            "flag": "https://restcountries.eu/data/sau.svg",
            "name": "Saudi Arabia"
        },
        "symbol": "SR",
        "name": "Saudi Riyal",
        "symbol_native": "ر.س.‏",
        "decimal_digits": 2,
        "rounding": 0,
        "code": "SAR",
        "name_plural": "Saudi riyals"
    },
    "SBD": {
        "country": {
            "alpha3Code": "SLB",
            "region": "Oceania",
            "subregion": "Melanesia",
            "numericCode": "090",
            "flag": "https://restcountries.eu/data/slb.svg",
            "name": "Solomon Islands"
        },
        "symbol": "$",
        "name": "Solomon Islander Dollar",
        "symbol_native": "$",
        "decimal_digits": 2,
        "rounding": 0,
        "code": "SBD",
        "name_plural": "Solomon Islander Dollars"
    },
    "SDG": {
        "country": {
            "alpha3Code": "SDN",
            "region": "Africa",
            "subregion": "Northern Africa",
            "numericCode": "729",
            "flag": "https://restcountries.eu/data/sdn.svg",
            "name": "Sudan"
        },
        "symbol": "SDG",
        "name": "Sudanese Pound",
        "symbol_native": "SDG",
        "decimal_digits": 2,
        "rounding": 0,
        "code": "SDG",
        "name_plural": "Sudanese pounds"
    },
    "SEK": {
        "country": {
            "alpha3Code": "SWE",
            "region": "Europe",
            "subregion": "Northern Europe",
            "numericCode": "752",
            "flag": "https://restcountries.eu/data/swe.svg",
            "name": "Sweden"
        },
        "symbol": "Skr",
        "name": "Swedish Krona",
        "symbol_native": "kr",
        "decimal_digits": 2,
        "rounding": 0,
        "code": "SEK",
        "name_plural": "Swedish kronor"
    },
    "SLL": {
        "country": {
            "alpha3Code": "SLE",
            "region": "Africa",
            "subregion": "Western Africa",
            "numericCode": "694",
            "flag": "https://restcountries.eu/data/sle.svg",
            "name": "Sierra Leone"
        },
        "symbol": "Le",
        "name": "Sierra Leonean Leone",
        "symbol_native": "Le",
        "decimal_digits": 2,
        "rounding": 0,
        "code": "SLL",
        "name_plural": "Sierra Leonean Leone"
    },
    "SOS": {
        "country": {
            "alpha3Code": "SOM",
            "region": "Africa",
            "subregion": "Eastern Africa",
            "numericCode": "706",
            "flag": "https://restcountries.eu/data/som.svg",
            "name": "Somalia"
        },
        "symbol": "Ssh",
        "name": "Somali Shilling",
        "symbol_native": "Ssh",
        "decimal_digits": 0,
        "rounding": 0,
        "code": "SOS",
        "name_plural": "Somali shillings"
    },
    "STD": {
        "country": {
            "alpha3Code": "STP",
            "region": "Africa",
            "subregion": "Middle Africa",
            "numericCode ": "678",
            "flag": "https://restcountries.eu/data/stp.svg",
            "name": "Sao Tome and Principe"
        },
        "symbol": "Db",
        "name": "Sao Tomean Dobra",
        "symbol_native": "Db",
        "decimal_digits": 0,
        "rounding": 0,
        "code": "STD",
        "name_plural": "Sao Tomean Dobra"
    },
    "SYP": {
        "country": {
            "alpha3Code": "SYR",
            "region": "Asia",
            "subregion": "Western Asia",
            "numericCode": "760",
            "flag": "https://restcountries.eu/data/syr.svg",
            "name": "Syrian Arab Republic"
        },
        "symbol": "SY£",
        "name": "Syrian Pound",
        "symbol_native": "ل.س.‏",
        "decimal_digits": 0,
        "rounding": 0,
        "code": "SYP",
        "name_plural": "Syrian pounds"
    },
    "SZL": {
        "country": {
            "alpha3Code": "SWZ",
            "region": "Africa",
            "subregion": "Southern Africa",
            "numericCode": "748",
            "flag": "https://restcountries.eu/data/swz.svg",
            "name": "Swaziland"
        },
        "symbol": "L",
        "name": "Swazi Lilangeni",
        "symbol_native": "L‏",
        "decimal_digits": 0,
        "rounding": 0,
        "code": "SZL",
        "name_plural": "Swazi Lilangeni"
    },
    "THB": {
        "country": {
            "alpha3Code": "THA",
            "region": "Asia",
            "subregion": "South-Eastern Asia",
            "numericCode": "764",
            "flag": "https://restcountries.eu/data/tha.svg",
            "name": "Thailand"
        },
        "symbol": "฿",
        "name": "Thai Baht",
        "symbol_native": "฿",
        "decimal_digits": 2,
        "rounding": 0,
        "code": "THB",
        "name_plural": "Thai baht"
    },
    "TJS": {
        "country": {
            "alpha3Code": "TJK",
            "region": "Asia",
            "subregion": "Central Asia",
            "numericCode": "762",
            "flag": "https://restcountries.eu/data/tjk.svg",
            "name": "Tajikistan"
        },
        "symbol": "ЅМ",
        "name": "Tajikistani Somoni",
        "symbol_native": "ЅМ",
        "decimal_digits": 2,
        "rounding": 0,
        "code": "THB",
        "name_plural": "Tajikistani Somoni"
    },
    "TND": {
        "country": {
            "alpha3Code": "TUN",
            "region": "Africa",
            "subregion": "Northern Africa",
            "numericCode": "788",
            "flag": "https://restcountries.eu/data/tun.svg",
            "name": "Tunisia"
        },
        "symbol": "DT",
        "name": "Tunisian Dinar",
        "symbol_native": "د.ت.‏",
        "decimal_digits": 3,
        "rounding": 0,
        "code": "TND",
        "name_plural": "Tunisian dinars"
    },
    "TOP": {
        "country": {
            "alpha3Code": "TON",
            "region": "Oceania",
            "subregion": "Polynesia",
            "numericCode": "776",
            "flag": "https://restcountries.eu/data/ton.svg",
            "name": "Tonga"
        },
        "symbol": "T$",
        "name": "Tongan Paʻanga",
        "symbol_native": "T$",
        "decimal_digits": 2,
        "rounding": 0,
        "code": "TOP",
        "name_plural": "Tongan paʻanga"
    },
    "TRY": {
        "country": {
            "alpha3Code": "TUR",
            "region": "Asia",
            "subregion": "Western Asia",
            "numericCode": "792",
            "flag": "https://restcountries.eu/data/tur.svg",
            "name": "Turkey"
        },
        "symbol": "TL",
        "name": "Turkish Lira",
        "symbol_native": "TL",
        "decimal_digits": 2,
        "rounding": 0,
        "code": "TRY",
        "name_plural": "Turkish Lira"
    },
    "TTD": {
        "country": {
            "alpha3Code": "TTO",
            "region": "Americas",
            "subregion": "Caribbean",
            "numericCode": "780",
            "flag": "https://restcountries.eu/data/tto.svg",
            "name": "Trinidad and Tobago"
        },
        "symbol": "TT$",
        "name": "Trinidad and Tobago Dollar",
        "symbol_native": "$",
        "decimal_digits": 2,
        "rounding": 0,
        "code": "TTD",
        "name_plural": "Trinidad and Tobago dollars"
    },
    "TWD": {
        "country": {
            "alpha3Code": "TWN",
            "region": "Asia",
            "subregion": "Eastern Asia",
            "numericCode": "158",
            "flag": "https://restcountries.eu/data/twn.svg",
            "name": "Taiwan"
        },
        "symbol": "NT$",
        "name": "New Taiwan Dollar",
        "symbol_native": "NT$",
        "decimal_digits": 2,
        "rounding": 0,
        "code": "TWD",
        "name_plural": "New Taiwan dollars"
    },
    "TZS": {
        "country": {
            "alpha3Code": "TZA",
            "region": "Africa",
            "subregion": "Eastern Africa",
            "numericCode": "834",
            "flag": "https://restcountries.eu/data/tza.svg",
            "name": "Tanzania, United Republic of"
        },
        "symbol": "TSh",
        "name": "Tanzanian Shilling",
        "symbol_native": "TSh",
        "decimal_digits": 0,
        "rounding": 0,
        "code": "TZS",
        "name_plural": "Tanzanian shillings"
    },
    "UAH": {
        "country": {
            "alpha3Code": "UKR",
            "region": "Europe",
            "subregion": "Eastern Europe",
            "numericCode": "804",
            "flag": "https://restcountries.eu/data/ukr.svg",
            "name": "Ukraine"
        },
        "symbol": "₴",
        "name": "Ukrainian Hryvnia",
        "symbol_native": "₴",
        "decimal_digits": 2,
        "rounding": 0,
        "code": "UAH",
        "name_plural": "Ukrainian hryvnias"
    },
    "UGX": {
        "country": {
            "alpha3Code": "UGA",
            "region": "Africa",
            "subregion": "Eastern Africa",
            "numericCode": "800",
            "flag": "https://restcountries.eu/data/uga.svg",
            "name": "Uganda"
        },
        "symbol": "USh",
        "name": "Ugandan Shilling",
        "symbol_native": "USh",
        "decimal_digits": 0,
        "rounding": 0,
        "code": "UGX",
        "name_plural": "Ugandan shillings"
    },
    "USD": {
        "country": {
            "alpha3Code": "USA",
            "region": "Americas",
            "subregion": "Northern America",
            "numericCode": "840",
            "flag": "https://restcountries.eu/data/usa.svg",
            "name": "United States of America"
        },
        "symbol": "$",
        "name": "US Dollar",
        "symbol_native": "$",
        "decimal_digits": 2,
        "rounding": 0,
        "code": "USD",
        "name_plural": "US dollars"
    },
    "UYU": {
        "country": {
            "alpha3Code": "URY",
            "region": "Americas",
            "subregion": "South America",
            "numericCode": "858",
            "flag": "https://restcountries.eu/data/ury.svg",
            "name": "Uruguay"
        },
        "symbol": "$U",
        "name": "Uruguayan Peso",
        "symbol_native": "$",
        "decimal_digits": 2,
        "rounding": 0,
        "code": "UYU",
        "name_plural": "Uruguayan pesos"
    },
    "UZS": {
        "country": {
            "alpha3Code": "UZB",
            "region": "Asia",
            "subregion": "Central Asia",
            "numericCode": "860",
            "flag": "https://restcountries.eu/data/uzb.svg",
            "name": "Uzbekistan"
        },
        "symbol": "UZS",
        "name": "Uzbekistan Som",
        "symbol_native": "UZS",
        "decimal_digits": 0,
        "rounding": 0,
        "code": "UZS",
        "name_plural": "Uzbekistan som"
    },
    "VEF": {
        "country": {
            "alpha3Code": "VEN",
            "region": "Americas",
            "subregion": "South America",
            "numericCode": "862",
            "flag": "https://restcountries.eu/data/ven.svg",
            "name": "Venezuela (Bolivarian Republic of)"
        },
        "symbol": "Bs.F.",
        "name": "Venezuelan Bolívar",
        "symbol_native": "Bs.F.",
        "decimal_digits": 2,
        "rounding": 0,
        "code": "VEF",
        "name_plural": "Venezuelan bolívars"
    },
    "VND": {
        "country": {
            "alpha3Code": "VNM",
            "region": "Asia",
            "subregion": "South-Eastern Asia",
            "numericCode": "704",
            "flag": "https://restcountries.eu/data/vnm.svg",
            "name": "Viet Nam"
        },
        "symbol": "₫",
        "name": "Vietnamese Dong",
        "symbol_native": "₫",
        "decimal_digits": 0,
        "rounding": 0,
        "code": "VND",
        "name_plural": "Vietnamese dong"
    },
    "VUV": {
        "country": {
            "alpha3Code": "VUT",
            "region": "Oceania",
            "subregion": "Melanesia",
            "numericCode": "548",
            "flag": "https://restcountries.eu/data/vut.svg",
            "name": "Vanuatu"
        },
        "symbol": "Vt",
        "name": "Ni-Vanuatu Vatu",
        "symbol_native": "Vt",
        "decimal_digits": 0,
        "rounding": 0,
        "code": "VUV",
        "name_plural": "Ni-Vanuatu Vatu"
    },
    "XAF": {
        "country": {
            "alpha3Code": "GAB",
            "region": "Africa",
            "subregion": "Middle Africa",
            "numericCode": "266",
            "flag": "https://restcountries.eu/data/gab.svg",
            "name": "Gabon"
        },
        "symbol": "FCFA",
        "name": "CFA Franc BEAC",
        "symbol_native": "FCFA",
        "decimal_digits": 0,
        "rounding": 0,
        "code": "XAF",
        "name_plural": "CFA francs BEAC"
    },
    "XCD": {
        "country": {
            "alpha3Code": "VCT",
            "region": "Americas",
            "subregion": "Caribbean",
            "numericCode": "670",
            "flag": "https://restcountries.eu/data/vct.svg",
            "name": "Saint Vincent and the Grenadines"
        },
        "symbol": "$",
        "name": "East Caribbean Dollar",
        "symbol_native": "$",
        "decimal_digits": 0,
        "rounding": 0,
        "code": "XCD",
        "name_plural": "East Caribbean Dollars"
    },
    "XOF": {
        "country": {
            "alpha3Code": "TGO",
            "region": "Africa",
            "subregion": "Western Africa",
            "numericCode": "768",
            "flag": "https://restcountries.eu/data/tgo.svg",
            "name": "Togo"
        },
        "symbol": "CFA",
        "name": "CFA Franc BCEAO",
        "symbol_native": "CFA",
        "decimal_digits": 0,
        "rounding": 0,
        "code": "XOF",
        "name_plural": "CFA francs BCEAO"
    },
    "XPF": {
        "country": {
            "alpha3Code": "WLF",
            "region": "Oceania",
            "subregion": "Polynesia",
            "numericCode": "876",
            "flag": "https://restcountries.eu/data/wlf.svg",
            "name": "Wallis and Futuna"
        },
        "symbol": "Fr",
        "name": "CFP franc",
        "symbol_native": "Fr",
        "decimal_digits": 0,
        "rounding": 0,
        "code": "XPF",
        "name_plural": "CFP franc"
    },
    "YER": {
        "country": {
            "alpha3Code": "YEM",
            "region": "Asia",
            "subregion": "Western Asia",
            "numericCode": "887",
            "flag": "https://restcountries.eu/data/yem.svg",
            "name": "Yemen"
        },
        "symbol": "YR",
        "name": "Yemeni Rial",
        "symbol_native": "ر.ي.‏",
        "decimal_digits": 0,
        "rounding": 0,
        "code": "YER",
        "name_plural": "Yemeni rials"
    },
    "ZAR": {
        "country": {
            "alpha3Code": "ZAF",
            "region": "Africa",
            "subregion": "Southern Africa",
            "numericCode": "710",
            "flag": "https://restcountries.eu/data/zaf.svg",
            "name": "South Africa"
        },
        "symbol": "R",
        "name": "South African Rand",
        "symbol_native": "R",
        "decimal_digits": 2,
        "rounding": 0,
        "code": "ZAR",
        "name_plural": "South African rand"
    }
}